[gd_scene load_steps=2 format=3 uid="uid://byn2pfbiv6307"]

[ext_resource type="Script" path="res://addons/debug_camera.gd" id="1_uw7v2"]

[node name="DebugCamera" type="Camera3D"]
transform = Transform3D(-1, 0, -8.74228e-08, 0, 1, 0, 8.74228e-08, 0, -1, 0, 0, 0)
script = ExtResource("1_uw7v2")
